Pensamiento estadístico - 12 Básicos de probabilidad y simulación
…
dado_1 dado_2 
     5      3 

Ahora simulamos un número grande de veces el experimento:

Código

set.seed(2323)
sims <- map_df(1:50000, ~ sim_dados())
sims

# A tibble: 50,000 × 2
   dado_1 dado_2
    <int>  <int>
 1      5      6
 2      3      3
 3      2      5
 4      3      5
 5      6      4
 6      2      2
 7      3      6
 8      6      5
 9      3      4
10      1      1
# … with 49,990 more rows
…
Y podemos calcular otras cantidades que puedes ser de interés, por ejemplo, ¿ cuál es la probabilidad de tirar más de nueve con dos dados?. Primero calculamos en qué simulaciones ocurre \(E\):

Código

sims_e <- 
   sims |>  
   mutate(suma = dado_1 + dado_2) |> 
   mutate(evento_E = (suma > 9)) 
sims_e

# A tibble: 50,000 × 4
   dado_1 dado_2  suma evento_E
    <int>  <int> <int> <lgl>   
 1      5      6    11 TRUE    
 2      3      3     6 FALSE   
 3      2      5     7 FALSE   
 4      3      5     8 FALSE   
 5      6      4    10 TRUE    
 6      2      2     4 FALSE   
 7      3      6     9 FALSE   
 8      6      5    11 TRUE    
 9      3      4     7 FALSE   
10      1      1     2 FALSE   
# … with 49,990 more rows
…
