Pensamiento estadístico - 4 Inferencia por intervalos
…
ℹ Use `spec()` to retrieve the full column specification for this data.
ℹ Specify the column types or set `show_col_types = FALSE` to quiet this message.

Código

casas

# A tibble: 1,388 × 45
      id tipo_zona frente_lote calle forma_lote nombre_zona tipo_edificio estilo
   <dbl> <chr>           <dbl> <chr> <chr>      <chr>       <chr>         <chr> 
 1     1 RL                 65 Pave  Reg        CollgCr     1Fam          2Story
 2     3 RL                 68 Pave  IR1        CollgCr     1Fam          2Story
 3     4 RL                 60 Pave  IR1        Crawfor     1Fam          2Story
 4     5 RL                 84 Pave  IR1        NoRidge     1Fam          2Story
 5     6 RL                 85 Pave  IR1        Mitchel     1Fam          1.5Fin
 6     7 RL                 75 Pave  Reg        Somerst     1Fam          1Story
 7     8 RL                 NA Pave  IR1        NWAmes      1Fam          2Story
 8     9 RM                 51 Pave  Reg        OldTown     1Fam          1.5Fin
 9    10 RL                 50 Pave  Reg        BrkSide     2fmCon        1.5Unf
10    11 RL                 70 Pave  Reg        Sawyer      1Fam          1Story
# … with 1,378 more rows, and 37 more variables: calidad_gral <dbl>,
#   condicion_gral <dbl>, año_construccion <dbl>, calidad_exteriores <chr>,
#   material_exteriores <chr>, condicion_exteriores <chr>,
#   calidad_sotano <chr>, condicion_sotano <chr>, tipo_sotano <chr>,
#   calefaccion <chr>, calidad_calefaccion <chr>, aire_acondicionado <chr>,
#   baños_completos <dbl>, baños_medios <dbl>, recamaras_sup <dbl>,
#   calidad_cocina <chr>, cuartos_sup <dbl>, tipo_garage <chr>, …
…
