Pensamiento estadístico - 7 Probabilidad condicional e independencia
…
Código

baraja <- tibble(numero = 1:13) %>% 
   crossing(tibble(figura = c("C", "D", "T", "P"))) %>% 
   mutate(carta = paste(numero, figura))
nrow(baraja)

[1] 52

Código

baraja

# A tibble: 52 × 3
   numero figura carta
    <int> <chr>  <chr>
 1      1 C      1 C  
 2      1 D      1 D  
 3      1 P      1 P  
 4      1 T      1 T  
 5      2 C      2 C  
 6      2 D      2 D  
 7      2 P      2 P  
 8      2 T      2 T  
 9      3 C      3 C  
10      3 D      3 D  
# … with 42 more rows
…
